{
  "$schema": "../../node_modules/ng-packagr/ng-package.schema.json",
  "dest": "../../dist/my-core-google-maps",
  "lib": {
    "entryFile": "src/public_api.ts"
  }, 
  "whitelistedNonPeerDependencies": [
    "."
  ]
}